{
    "links": [
        {
            "label": "Home",
            "href": "/home"
        },
        {
            "label": "About",
            "href": "/about"
        },
        {
            "label": "Cities",
            "href": "/cities"
        },
        {
            "label": "Resources",
            "href": "/resources"
        },
        {
            "label": "Medical",
            "href": "/medical"
        }
    ]
}